Esophagus REDCap Cohort • OncoRegimenFinder
…
To prepare the REDCap Data for the join with the OncoRegimenFinder results for a side-by-side comparison, the last step is grouping the REDCap Data by Person Id.

The OncoRegimenFinder results is also be grouped based on Person Id, allowing for specific joins at the person level after copying the Date data into their corresponding NORMALIZE columns.

#> # A tibble: 100,647 x 14
#>    esophagus_perso… ptid  person_id drug_exposure_id ingredient_name
#>    <chr>            <chr>     <int> <chr>            <chr>          
#>  1 42471            MSKE…     42471 12248879         fluorouracil   
#>  2 42471            MSKE…     42471 12248826         oxaliplatin    
#>  3 42471            MSKE…     42471 12248871         fluorouracil   
#>  4 42471            MSKE…     42471 12248872         fluorouracil   
#>  5 42471            MSKE…     42471 12248824         oxaliplatin    
#>  6 42471            MSKE…     42471 12248824         oxaliplatin    
#>  7 42471            MSKE…     42471 12248873         fluorouracil   
#>  8 42471            MSKE…     42471 12248873         fluorouracil   
#>  9 42471            MSKE…     42471 12248880         fluorouracil   
#> 10 42471            MSKE…     42471 12248826         oxaliplatin    
#> # … with 100,637 more rows, and 9 more variables: ingredient_start_date <chr>,
#> #   ingredient_end_date <chr>, derived_regimen_name <chr>, regimen_id <chr>,
#> #   regimen_name <chr>, derived_regimen_start_date <chr>,
#> #   derived_regimen_end_date <chr>, NORMALIZE_START_DATE <chr>,
#> #   NORMALIZE_END_DATE <chr>

The data from both sources are then blended, with a DATA_SOURCE column to demarcate whether the source was OMOP or REDCap.

Notably Incorrect

final_output$`1558617`
#> # A tibble: 42 x 20
#>    DATA_SOURCE VARIABLE ptid  PV    Context EVENT_START_DATE EVENT_END_DATE
#>    <chr>       <chr>    <chr> <chr> <chr>   <chr>            <chr>         
#>  1 REDCAP      tx_name  MSKE… FLOT  tx      2019-04-24       2020-01-30    
#>  2 REDCAP      tx_name  MSKE… FLOT  tx_mai… 2019-11-07       <NA>          
#>  3 REDCAP      tx_name  MSKE… FLOT  tx_pre… <NA>             2019-06-10    
#>  4 REDCAP      tx_main… MSKE… FOLF… tx      2019-04-24       2020-01-30    
#>  5 REDCAP      tx_main… MSKE… FOLF… tx_mai… 2019-11-07       <NA>          
#>  6 REDCAP      tx_main… MSKE… FOLF… tx_pre… <NA>             2019-06-10    
#>  7 OMOP        <NA>     MSKE… <NA>  <NA>    <NA>             <NA>          
#>  8 OMOP        <NA>     MSKE… <NA>  <NA>    <NA>             <NA>          
#>  9 OMOP        <NA>     MSKE… <NA>  <NA>    <NA>             <NA>          
#> 10 OMOP        <NA>     MSKE… <NA>  <NA>    <NA>             <NA>          
#> # … with 32 more rows, and 13 more variables: person_id <dbl>,
#> #   NORMALIZE_START_DATE <chr>, NORMALIZE_END_DATE <chr>,
#> #   esophagus_person_id <chr>, drug_exposure_id <chr>, ingredient_name <chr>,
#> #   ingredient_start_date <chr>, ingredient_end_date <chr>,
#> #   derived_regimen_name <chr>, regimen_id <chr>, regimen_name <chr>,
#> #   derived_regimen_start_date <chr>, derived_regimen_end_date <chr>

final_output$`1557156`
#> # A tibble: 35 x 20
#>    DATA_SOURCE VARIABLE ptid  PV    Context EVENT_START_DATE EVENT_END_DATE
#>    <chr>       <chr>    <chr> <chr> <chr>   <chr>            <chr>         
#>  1 REDCAP      crt_name MSKE… Durv… crt     2019-10-16       2019-12-10    
#>  2 REDCAP      crt_name MSKE… Durv… induct… 2019-09-18       2019-10-02    
#>  3 REDCAP      inducti… MSKE… Folf… crt     2019-10-16       2019-12-10    
#>  4 REDCAP      inducti… MSKE… Folf… induct… 2019-09-18       2019-10-02    
#>  5 REDCAP      tx_name  MSKE… Folf… tx      2020-01-27       <NA>          
#>  6 OMOP        <NA>     MSKE… <NA>  <NA>    <NA>             <NA>          
#>  7 OMOP        <NA>     MSKE… <NA>  <NA>    <NA>             <NA>          
#>  8 OMOP        <NA>     MSKE… <NA>  <NA>    <NA>             <NA>          
#>  9 OMOP        <NA>     MSKE… <NA>  <NA>    <NA>             <NA>          
#> 10 OMOP        <NA>     MSKE… <NA>  <NA>    <NA>             <NA>          
#> # … with 25 more rows, and 13 more variables: person_id <dbl>,
#> #   NORMALIZE_START_DATE <chr>, NORMALIZE_END_DATE <chr>,
#> #   esophagus_person_id <chr>, drug_exposure_id <chr>, ingredient_name <chr>,
#> #   ingredient_start_date <chr>, ingredient_end_date <chr>,
#> #   derived_regimen_name <chr>, regimen_id <chr>, regimen_name <chr>,
#> #   derived_regimen_start_date <chr>, derived_regimen_end_date <chr>
…
