esophagus-redcap • OncoRegimenFinder
…
For each of the Variables, a copy of the REDCap Data is selected for the Patient Identifier (ptid) and the Variable, as well as any associated Start and Stop Dates and placed in a list object.

The output is a list of the length of the treament_vars, where each position of the list occupied by the Patient Identifier, the treatment_var, and all the possible date data associated with that treatment. Unlike other REDCap projects where there is a single set of start and end dates associated with the treatment, the Esophagus REDCap took it an extra step by including valuable clinical context information in their data collection. For example, the Variable regimen_name_2 has the following possible dates: tx_start-tx_stop, tx_pre_maintenance_start-tx_pre_maintenance_stop, and tx_pre_maintenance2_start-tx_pre_maintenance2_stop.

#> # A tibble: 32 x 8
#>    ptid  regimen_name_m2 tx_start tx_maintenance_… tx_maintenance2…
#>    <chr> <chr>           <chr>    <chr>            <chr>           
#>  1 MSKE… FOLFOX + Trast… 2016-12… 2017-02-08       2019-08-14      
#>  2 MSKE… Other           2017-02… 2017-06-08       2017-12-11      
#>  3 MSKE… Pembrolizumab   2017-03… 2017-10-03       2019-10-09      
#>  4 MSKE… CAPOX +Trastuz… 2017-04… 2017-10-12       2018-05-10      
#>  5 MSKE… CAPOX +Trastuz… 2017-05… 2017-10-25       2018-06-13      
#>  6 MSKE… CAPOX +Trastuz… 2018-08… 2019-03-13       2019-05-22      
#>  7 MSKE… 5-FU+Trastuzum… 2019-01… 2019-03-06       2019-08-07      
#>  8 MSKE… FOLFOX (5-FU +… 2016-08… 2016-12-05       2017-03-06      
#>  9 MSKE… FOLFIRI (5-FU … 2019-03… 2019-07-03       2019-08-21      
#> 10 MSKE… Capecitabine    2019-07… 2019-11-20       2020-02-05      
#> # … with 22 more rows, and 3 more variables: tx_pre_maintenance_stop <chr>,
#> #   tx_pre_maintenance2_stop <chr>, tx_stop <chr>

For this particular project, 21 Variables have more than 1 set of start-stop dates for treatments due to contextual differences.

In order to manage the one-to-many relationship between a treatment and the contextual start and stop dates, the all the date Variables data are pivoted and the context is separated from the DateType, whether the Date represents a start or stop of a treatment.

#> # A tibble: 14,646 x 6
#>    VARIABLE       ptid       PV     Context   DateType   Date      
#>    <chr>          <chr>      <chr>  <chr>     <chr>      <chr>     
#>  1 neoadj_regimen MSKEGC0040 FOLFOX neoadj    start      2018-04-05
#>  2 neoadj_regimen MSKEGC0040 FOLFOX crt       start_date <NA>      
#>  3 neoadj_regimen MSKEGC0040 FOLFOX adj       start      <NA>      
#>  4 neoadj_regimen MSKEGC0040 FOLFOX adj_rt    start      <NA>      
#>  5 neoadj_regimen MSKEGC0040 FOLFOX induction start      <NA>      
#>  6 neoadj_regimen MSKEGC0040 FOLFOX neoadj    stop       2018-06-07
#>  7 neoadj_regimen MSKEGC0040 FOLFOX crt       stop_date  <NA>      
#>  8 neoadj_regimen MSKEGC0040 FOLFOX adj       stop       <NA>      
#>  9 neoadj_regimen MSKEGC0040 FOLFOX adj_rt    stop       <NA>      
#> 10 neoadj_regimen MSKEGC0040 FOLFOX induction stop       <NA>      
#> # … with 14,636 more rows

Lastly, the data is massaged into the Patient Events Table Format, thereby successfully isolating the start-stop date concept pairs to a single observation level. At this stage any rows where both the Event Start and End Date are NA or blank are filtered out.

#> # A tibble: 10,868 x 6
#>    VARIABLE       ptid       PV     Context   EVENT_START_DATE EVENT_END_DATE
#>    <chr>          <chr>      <chr>  <chr>     <chr>            <chr>         
#>  1 neoadj_regimen MSKEGC0040 FOLFOX neoadj    2018-04-05       2018-06-07    
#>  2 neoadj_regimen MSKEGC0040 FOLFOX crt       NA               NA            
#>  3 neoadj_regimen MSKEGC0040 FOLFOX adj       NA               NA            
#>  4 neoadj_regimen MSKEGC0040 FOLFOX adj_rt    NA               NA            
#>  5 neoadj_regimen MSKEGC0040 FOLFOX induction NA               NA            
#>  6 neoadj_regimen MSKEGC0042 FLOT   neoadj    2017-11-30       2018-01-10    
#>  7 neoadj_regimen MSKEGC0042 FLOT   crt       NA               NA            
#>  8 neoadj_regimen MSKEGC0042 FLOT   adj       2018-04-25       2018-05-09    
#>  9 neoadj_regimen MSKEGC0042 FLOT   adj_rt    NA               NA            
#> 10 neoadj_regimen MSKEGC0042 FLOT   induction NA               NA            
#> # … with 10,858 more rows

The REDCap Data is then joined with the Esophagus Cohort Data on the ptid Variable to be able to map the data back to the OMOP Person Id. The Event Date columns are copied to additional NORMALIZE columns. These columns will also be added to the OncoRegimenFinder results in order to perform a union and to compare the accuracy between the 2 data sources.

#> Joining, by = "ptid"
#> # A tibble: 4,495 x 9
#>    VARIABLE ptid  PV    Context EVENT_START_DATE EVENT_END_DATE person_id
#>    <chr>    <chr> <chr> <chr>   <chr>            <chr>              <dbl>
#>  1 neoadj_… MSKE… FOLF… neoadj  2018-04-05       2018-06-07        859261
#>  2 neoadj_… MSKE… FLOT  neoadj  2017-11-30       2018-01-10       1199120
#>  3 neoadj_… MSKE… FLOT  adj     2018-04-25       2018-05-09       1199120
#>  4 neoadj_… MSKE… EOX … neoadj  2017-03-01       <NA>             1421563
#>  5 neoadj_… MSKE… FOLF… neoadj  2017-08-02       2017-08-02       1284231
#>  6 neoadj_… MSKE… FLOT  neoadj  2018-10-16       2018-11-27       1295920
#>  7 neoadj_… MSKE… Cape… adj     2018-05-24       2018-07-11       1308346
#>  8 neoadj_… MSKE… Cape… neoadj  2014-12-26       2015-01-16       1327098
#>  9 neoadj_… MSKE… Cape… adj     2015-04-22       2015-06-01       1327098
#> 10 neoadj_… MSKE… mDCF  neoadj  2015-08-31       2016-01-14       1355614
#> # … with 4,485 more rows, and 2 more variables: NORMALIZE_START_DATE <chr>,
#> #   NORMALIZE_END_DATE <chr>

To prepare the REDCap Data for the join with the OncoRegimenFinder results for a side-by-side comparison, the last step is grouping the REDCap Data by Person Id.

The OncoRegimenFinder results is also be grouped based on Person Id, allowing for specific joins at the person level after copying the Date data into their corresponding NORMALIZE columns.

#> # A tibble: 7,725 x 14
#>    esophagus_perso… ptid  person_id drug_exposure_id ingredient ingredient_star…
#>    <chr>            <chr>     <int> <chr>            <chr>      <chr>           
#>  1 112009           MSKE…    112009 17696417         oxaliplat… 2018-05-21      
#>  2 112009           MSKE…    112009 17696416         oxaliplat… 2018-05-03      
#>  3 112009           MSKE…    112009 17696418         oxaliplat… 2018-06-05      
#>  4 225659           MSKE…    225659 13532829         ramucirum… 2018-04-05      
#>  5 239542           MSKE…    239542 6265129          paclitaxel 2015-01-29      
#>  6 239542           MSKE…    239542 6265130          paclitaxel 2015-02-05      
#>  7 239542           MSKE…    239542 6265131          paclitaxel 2015-02-13      
#>  8 239542           MSKE…    239542 6265139          oxaliplat… 2015-03-03      
#>  9 239542           MSKE…    239542 6265140          oxaliplat… 2015-03-17      
#> 10 239542           MSKE…    239542 6265141          oxaliplat… 2015-03-31      
#> # … with 7,715 more rows, and 8 more variables: ingredient_end_date <chr>,
#> #   regimen <chr>, hemonc_concept_id <chr>, reg_name <chr>,
#> #   regimen_start_date <chr>, regimen_end_date <chr>,
#> #   NORMALIZE_START_DATE <chr>, NORMALIZE_END_DATE <chr>
…
